('C:\\Users\\Peter\\workspace_idea\\synergis\\src\\dist\\pop_db_processor.exe',
 True,
 False,
 False,
 None,
 None,
 False,
 False,
 '<?xml version="1.0" encoding="UTF-8" standalone="yes"?><assembly manifestVersion="1.0" xmlns="urn:schemas-microsoft-com:asm.v1"><assemblyIdentity name="census" processorArchitecture="x86" type="win32" version="1.0.0.0"/><dependency><dependentAssembly><assemblyIdentity language="*" name="Microsoft.Windows.Common-Controls" processorArchitecture="*" publicKeyToken="6595b64144ccf1df" type="win32" version="6.0.0.0"/><compatibility xmlns="urn:schemas-microsoft-com:compatibility.v1"/></dependentAssembly></dependency><compatibility xmlns="urn:schemas-microsoft-com:compatibility.v1"><application><supportedOS Id="{e2011457-1546-43c5-a5fe-008deee3d3f0}"/><supportedOS Id="{35138b9a-5d96-4fbd-8e2d-a2440225f93a}"/><supportedOS Id="{4a2f28e3-53b9-4441-ba9c-d69d4a4a6e38}"/><supportedOS Id="{1f676c76-80e1-4239-95bb-83d0f6d0da78}"/><supportedOS Id="{8e0f7a12-bfb3-4fe8-b9a5-48fd50a15a9a}"/></application></compatibility></assembly>',
 True,
 'pop_db_processor.pkg',
 [('PYZ-00.pyz',
   'C:\\Users\\Peter\\workspace_idea\\synergis\\src\\build\\census\\PYZ-00.pyz',
   'PYZ'),
  ('struct',
   'c:\\users\\peter\\appdata\\local\\programs\\python\\python37-32\\lib\\struct.pyo',
   'PYMODULE'),
  ('pyimod01_os_path',
   'c:\\users\\peter\\appdata\\local\\programs\\python\\python37-32\\lib\\site-packages\\PyInstaller\\loader\\pyimod01_os_path.pyc',
   'PYMODULE'),
  ('pyimod02_archive',
   'c:\\users\\peter\\appdata\\local\\programs\\python\\python37-32\\lib\\site-packages\\PyInstaller\\loader\\pyimod02_archive.pyc',
   'PYMODULE'),
  ('pyimod03_importers',
   'c:\\users\\peter\\appdata\\local\\programs\\python\\python37-32\\lib\\site-packages\\PyInstaller\\loader\\pyimod03_importers.pyc',
   'PYMODULE'),
  ('pyiboot01_bootstrap',
   'c:\\users\\peter\\appdata\\local\\programs\\python\\python37-32\\lib\\site-packages\\PyInstaller\\loader\\pyiboot01_bootstrap.py',
   'PYSOURCE'),
  ('census',
   'C:\\Users\\Peter\\workspace_idea\\synergis\\src\\census.py',
   'PYSOURCE'),
  ('VCRUNTIME140.dll',
   'c:\\users\\peter\\appdata\\local\\programs\\python\\python37-32\\VCRUNTIME140.dll',
   'BINARY'),
  ('python37.dll',
   'c:\\users\\peter\\appdata\\local\\programs\\python\\python37-32\\python37.dll',
   'BINARY'),
  ('_socket',
   'c:\\users\\peter\\appdata\\local\\programs\\python\\python37-32\\DLLs\\_socket.pyd',
   'EXTENSION'),
  ('_lzma',
   'c:\\users\\peter\\appdata\\local\\programs\\python\\python37-32\\DLLs\\_lzma.pyd',
   'EXTENSION'),
  ('_bz2',
   'c:\\users\\peter\\appdata\\local\\programs\\python\\python37-32\\DLLs\\_bz2.pyd',
   'EXTENSION'),
  ('select',
   'c:\\users\\peter\\appdata\\local\\programs\\python\\python37-32\\DLLs\\select.pyd',
   'EXTENSION'),
  ('_hashlib',
   'c:\\users\\peter\\appdata\\local\\programs\\python\\python37-32\\DLLs\\_hashlib.pyd',
   'EXTENSION'),
  ('_ssl',
   'c:\\users\\peter\\appdata\\local\\programs\\python\\python37-32\\DLLs\\_ssl.pyd',
   'EXTENSION'),
  ('unicodedata',
   'c:\\users\\peter\\appdata\\local\\programs\\python\\python37-32\\DLLs\\unicodedata.pyd',
   'EXTENSION'),
  ('pyexpat',
   'c:\\users\\peter\\appdata\\local\\programs\\python\\python37-32\\DLLs\\pyexpat.pyd',
   'EXTENSION'),
  ('_queue',
   'c:\\users\\peter\\appdata\\local\\programs\\python\\python37-32\\DLLs\\_queue.pyd',
   'EXTENSION'),
  ('_ctypes',
   'c:\\users\\peter\\appdata\\local\\programs\\python\\python37-32\\DLLs\\_ctypes.pyd',
   'EXTENSION'),
  ('_decimal',
   'c:\\users\\peter\\appdata\\local\\programs\\python\\python37-32\\DLLs\\_decimal.pyd',
   'EXTENSION'),
  ('libcrypto-1_1.dll',
   'c:\\users\\peter\\appdata\\local\\programs\\python\\python37-32\\DLLs\\libcrypto-1_1.dll',
   'BINARY'),
  ('libssl-1_1.dll',
   'c:\\users\\peter\\appdata\\local\\programs\\python\\python37-32\\DLLs\\libssl-1_1.dll',
   'BINARY'),
  ('base_library.zip',
   'C:\\Users\\Peter\\workspace_idea\\synergis\\src\\build\\census\\base_library.zip',
   'DATA'),
  ('dbconfig.ini', 'dbconfig.ini', 'DATA'),
  ('nst-est2016-alldata.csv', 'nst-est2016-alldata.csv', 'DATA'),
  ('pop_db_processor.exe.manifest',
   'C:\\Users\\Peter\\workspace_idea\\synergis\\src\\build\\census\\census.exe.manifest',
   'BINARY'),
  ('pyi-windows-manifest-filename pop_db_processor.exe.manifest',
   '',
   'OPTION')],
 [],
 False,
 False,
 1579544681,
 [('run.exe',
   'c:\\users\\peter\\appdata\\local\\programs\\python\\python37-32\\lib\\site-packages\\PyInstaller\\bootloader\\Windows-32bit\\run.exe',
   'EXECUTABLE')])
