('C:\\Users\\Peter\\workspace_idea\\synergis\\src\\build\\census\\PKG-00.pkg',
 {'BINARY': 1,
  'DATA': 1,
  'EXECUTABLE': 1,
  'EXTENSION': 1,
  'PYMODULE': 1,
  'PYSOURCE': 1,
  'PYZ': 0},
 [('PYZ-00.pyz',
   'C:\\Users\\Peter\\workspace_idea\\synergis\\src\\build\\census\\PYZ-00.pyz',
   'PYZ'),
  ('struct',
   'c:\\users\\peter\\appdata\\local\\programs\\python\\python37-32\\lib\\struct.pyo',
   'PYMODULE'),
  ('pyimod01_os_path',
   'c:\\users\\peter\\appdata\\local\\programs\\python\\python37-32\\lib\\site-packages\\PyInstaller\\loader\\pyimod01_os_path.pyc',
   'PYMODULE'),
  ('pyimod02_archive',
   'c:\\users\\peter\\appdata\\local\\programs\\python\\python37-32\\lib\\site-packages\\PyInstaller\\loader\\pyimod02_archive.pyc',
   'PYMODULE'),
  ('pyimod03_importers',
   'c:\\users\\peter\\appdata\\local\\programs\\python\\python37-32\\lib\\site-packages\\PyInstaller\\loader\\pyimod03_importers.pyc',
   'PYMODULE'),
  ('pyiboot01_bootstrap',
   'c:\\users\\peter\\appdata\\local\\programs\\python\\python37-32\\lib\\site-packages\\PyInstaller\\loader\\pyiboot01_bootstrap.py',
   'PYSOURCE'),
  ('census',
   'C:\\Users\\Peter\\workspace_idea\\synergis\\src\\census.py',
   'PYSOURCE'),
  ('VCRUNTIME140.dll',
   'c:\\users\\peter\\appdata\\local\\programs\\python\\python37-32\\VCRUNTIME140.dll',
   'BINARY'),
  ('python37.dll',
   'c:\\users\\peter\\appdata\\local\\programs\\python\\python37-32\\python37.dll',
   'BINARY'),
  ('_socket',
   'c:\\users\\peter\\appdata\\local\\programs\\python\\python37-32\\DLLs\\_socket.pyd',
   'EXTENSION'),
  ('_lzma',
   'c:\\users\\peter\\appdata\\local\\programs\\python\\python37-32\\DLLs\\_lzma.pyd',
   'EXTENSION'),
  ('_bz2',
   'c:\\users\\peter\\appdata\\local\\programs\\python\\python37-32\\DLLs\\_bz2.pyd',
   'EXTENSION'),
  ('select',
   'c:\\users\\peter\\appdata\\local\\programs\\python\\python37-32\\DLLs\\select.pyd',
   'EXTENSION'),
  ('_hashlib',
   'c:\\users\\peter\\appdata\\local\\programs\\python\\python37-32\\DLLs\\_hashlib.pyd',
   'EXTENSION'),
  ('_ssl',
   'c:\\users\\peter\\appdata\\local\\programs\\python\\python37-32\\DLLs\\_ssl.pyd',
   'EXTENSION'),
  ('unicodedata',
   'c:\\users\\peter\\appdata\\local\\programs\\python\\python37-32\\DLLs\\unicodedata.pyd',
   'EXTENSION'),
  ('pyexpat',
   'c:\\users\\peter\\appdata\\local\\programs\\python\\python37-32\\DLLs\\pyexpat.pyd',
   'EXTENSION'),
  ('_queue',
   'c:\\users\\peter\\appdata\\local\\programs\\python\\python37-32\\DLLs\\_queue.pyd',
   'EXTENSION'),
  ('_ctypes',
   'c:\\users\\peter\\appdata\\local\\programs\\python\\python37-32\\DLLs\\_ctypes.pyd',
   'EXTENSION'),
  ('_decimal',
   'c:\\users\\peter\\appdata\\local\\programs\\python\\python37-32\\DLLs\\_decimal.pyd',
   'EXTENSION'),
  ('libcrypto-1_1.dll',
   'c:\\users\\peter\\appdata\\local\\programs\\python\\python37-32\\DLLs\\libcrypto-1_1.dll',
   'BINARY'),
  ('libssl-1_1.dll',
   'c:\\users\\peter\\appdata\\local\\programs\\python\\python37-32\\DLLs\\libssl-1_1.dll',
   'BINARY'),
  ('base_library.zip',
   'C:\\Users\\Peter\\workspace_idea\\synergis\\src\\build\\census\\base_library.zip',
   'DATA'),
  ('dbconfig.ini', 'dbconfig.ini', 'DATA'),
  ('nst-est2016-alldata.csv', 'nst-est2016-alldata.csv', 'DATA'),
  ('pop_db_processor.exe.manifest',
   'C:\\Users\\Peter\\workspace_idea\\synergis\\src\\build\\census\\census.exe.manifest',
   'BINARY'),
  ('pyi-windows-manifest-filename pop_db_processor.exe.manifest',
   '',
   'OPTION')],
 False,
 False,
 False,
 [])
