('C:\\Users\\Peter\\workspace_idea\\synergis\\src\\build\\census\\PYZ-00.pyz',
 [('_py_abc',
   'c:\\users\\peter\\appdata\\local\\programs\\python\\python37-32\\lib\\_py_abc.py',
   'PYMODULE'),
  ('_strptime',
   'c:\\users\\peter\\appdata\\local\\programs\\python\\python37-32\\lib\\_strptime.py',
   'PYMODULE'),
  ('datetime',
   'c:\\users\\peter\\appdata\\local\\programs\\python\\python37-32\\lib\\datetime.py',
   'PYMODULE'),
  ('calendar',
   'c:\\users\\peter\\appdata\\local\\programs\\python\\python37-32\\lib\\calendar.py',
   'PYMODULE'),
  ('argparse',
   'c:\\users\\peter\\appdata\\local\\programs\\python\\python37-32\\lib\\argparse.py',
   'PYMODULE'),
  ('textwrap',
   'c:\\users\\peter\\appdata\\local\\programs\\python\\python37-32\\lib\\textwrap.py',
   'PYMODULE'),
  ('gettext',
   'c:\\users\\peter\\appdata\\local\\programs\\python\\python37-32\\lib\\gettext.py',
   'PYMODULE'),
  ('struct',
   'c:\\users\\peter\\appdata\\local\\programs\\python\\python37-32\\lib\\struct.py',
   'PYMODULE'),
  ('copy',
   'c:\\users\\peter\\appdata\\local\\programs\\python\\python37-32\\lib\\copy.py',
   'PYMODULE'),
  ('tokenize',
   'c:\\users\\peter\\appdata\\local\\programs\\python\\python37-32\\lib\\tokenize.py',
   'PYMODULE'),
  ('token',
   'c:\\users\\peter\\appdata\\local\\programs\\python\\python37-32\\lib\\token.py',
   'PYMODULE'),
  ('doctest',
   'c:\\users\\peter\\appdata\\local\\programs\\python\\python37-32\\lib\\doctest.py',
   'PYMODULE'),
  ('unittest',
   'c:\\users\\peter\\appdata\\local\\programs\\python\\python37-32\\lib\\unittest\\__init__.py',
   'PYMODULE'),
  ('ntpath',
   'c:\\users\\peter\\appdata\\local\\programs\\python\\python37-32\\lib\\ntpath.py',
   'PYMODULE'),
  ('string',
   'c:\\users\\peter\\appdata\\local\\programs\\python\\python37-32\\lib\\string.py',
   'PYMODULE'),
  ('genericpath',
   'c:\\users\\peter\\appdata\\local\\programs\\python\\python37-32\\lib\\genericpath.py',
   'PYMODULE'),
  ('stat',
   'c:\\users\\peter\\appdata\\local\\programs\\python\\python37-32\\lib\\stat.py',
   'PYMODULE'),
  ('unittest.signals',
   'c:\\users\\peter\\appdata\\local\\programs\\python\\python37-32\\lib\\unittest\\signals.py',
   'PYMODULE'),
  ('signal',
   'c:\\users\\peter\\appdata\\local\\programs\\python\\python37-32\\lib\\signal.py',
   'PYMODULE'),
  ('unittest.main',
   'c:\\users\\peter\\appdata\\local\\programs\\python\\python37-32\\lib\\unittest\\main.py',
   'PYMODULE'),
  ('unittest.runner',
   'c:\\users\\peter\\appdata\\local\\programs\\python\\python37-32\\lib\\unittest\\runner.py',
   'PYMODULE'),
  ('unittest.loader',
   'c:\\users\\peter\\appdata\\local\\programs\\python\\python37-32\\lib\\unittest\\loader.py',
   'PYMODULE'),
  ('fnmatch',
   'c:\\users\\peter\\appdata\\local\\programs\\python\\python37-32\\lib\\fnmatch.py',
   'PYMODULE'),
  ('posixpath',
   'c:\\users\\peter\\appdata\\local\\programs\\python\\python37-32\\lib\\posixpath.py',
   'PYMODULE'),
  ('unittest.suite',
   'c:\\users\\peter\\appdata\\local\\programs\\python\\python37-32\\lib\\unittest\\suite.py',
   'PYMODULE'),
  ('unittest.case',
   'c:\\users\\peter\\appdata\\local\\programs\\python\\python37-32\\lib\\unittest\\case.py',
   'PYMODULE'),
  ('contextlib',
   'c:\\users\\peter\\appdata\\local\\programs\\python\\python37-32\\lib\\contextlib.py',
   'PYMODULE'),
  ('pprint',
   'c:\\users\\peter\\appdata\\local\\programs\\python\\python37-32\\lib\\pprint.py',
   'PYMODULE'),
  ('logging',
   'c:\\users\\peter\\appdata\\local\\programs\\python\\python37-32\\lib\\logging\\__init__.py',
   'PYMODULE'),
  ('pickle',
   'c:\\users\\peter\\appdata\\local\\programs\\python\\python37-32\\lib\\pickle.py',
   'PYMODULE'),
  ('_compat_pickle',
   'c:\\users\\peter\\appdata\\local\\programs\\python\\python37-32\\lib\\_compat_pickle.py',
   'PYMODULE'),
  ('threading',
   'c:\\users\\peter\\appdata\\local\\programs\\python\\python37-32\\lib\\threading.py',
   'PYMODULE'),
  ('_threading_local',
   'c:\\users\\peter\\appdata\\local\\programs\\python\\python37-32\\lib\\_threading_local.py',
   'PYMODULE'),
  ('unittest.result',
   'c:\\users\\peter\\appdata\\local\\programs\\python\\python37-32\\lib\\unittest\\result.py',
   'PYMODULE'),
  ('unittest.util',
   'c:\\users\\peter\\appdata\\local\\programs\\python\\python37-32\\lib\\unittest\\util.py',
   'PYMODULE'),
  ('pdb',
   'c:\\users\\peter\\appdata\\local\\programs\\python\\python37-32\\lib\\pdb.py',
   'PYMODULE'),
  ('getopt',
   'c:\\users\\peter\\appdata\\local\\programs\\python\\python37-32\\lib\\getopt.py',
   'PYMODULE'),
  ('pydoc',
   'c:\\users\\peter\\appdata\\local\\programs\\python\\python37-32\\lib\\pydoc.py',
   'PYMODULE'),
  ('webbrowser',
   'c:\\users\\peter\\appdata\\local\\programs\\python\\python37-32\\lib\\webbrowser.py',
   'PYMODULE'),
  ('socket',
   'c:\\users\\peter\\appdata\\local\\programs\\python\\python37-32\\lib\\socket.py',
   'PYMODULE'),
  ('selectors',
   'c:\\users\\peter\\appdata\\local\\programs\\python\\python37-32\\lib\\selectors.py',
   'PYMODULE'),
  ('shutil',
   'c:\\users\\peter\\appdata\\local\\programs\\python\\python37-32\\lib\\shutil.py',
   'PYMODULE'),
  ('zipfile',
   'c:\\users\\peter\\appdata\\local\\programs\\python\\python37-32\\lib\\zipfile.py',
   'PYMODULE'),
  ('py_compile',
   'c:\\users\\peter\\appdata\\local\\programs\\python\\python37-32\\lib\\py_compile.py',
   'PYMODULE'),
  ('tarfile',
   'c:\\users\\peter\\appdata\\local\\programs\\python\\python37-32\\lib\\tarfile.py',
   'PYMODULE'),
  ('gzip',
   'c:\\users\\peter\\appdata\\local\\programs\\python\\python37-32\\lib\\gzip.py',
   'PYMODULE'),
  ('_compression',
   'c:\\users\\peter\\appdata\\local\\programs\\python\\python37-32\\lib\\_compression.py',
   'PYMODULE'),
  ('lzma',
   'c:\\users\\peter\\appdata\\local\\programs\\python\\python37-32\\lib\\lzma.py',
   'PYMODULE'),
  ('bz2',
   'c:\\users\\peter\\appdata\\local\\programs\\python\\python37-32\\lib\\bz2.py',
   'PYMODULE'),
  ('email.message',
   'c:\\users\\peter\\appdata\\local\\programs\\python\\python37-32\\lib\\email\\message.py',
   'PYMODULE'),
  ('email.policy',
   'c:\\users\\peter\\appdata\\local\\programs\\python\\python37-32\\lib\\email\\policy.py',
   'PYMODULE'),
  ('email.contentmanager',
   'c:\\users\\peter\\appdata\\local\\programs\\python\\python37-32\\lib\\email\\contentmanager.py',
   'PYMODULE'),
  ('email.quoprimime',
   'c:\\users\\peter\\appdata\\local\\programs\\python\\python37-32\\lib\\email\\quoprimime.py',
   'PYMODULE'),
  ('email.headerregistry',
   'c:\\users\\peter\\appdata\\local\\programs\\python\\python37-32\\lib\\email\\headerregistry.py',
   'PYMODULE'),
  ('email._header_value_parser',
   'c:\\users\\peter\\appdata\\local\\programs\\python\\python37-32\\lib\\email\\_header_value_parser.py',
   'PYMODULE'),
  ('urllib',
   'c:\\users\\peter\\appdata\\local\\programs\\python\\python37-32\\lib\\urllib\\__init__.py',
   'PYMODULE'),
  ('email.iterators',
   'c:\\users\\peter\\appdata\\local\\programs\\python\\python37-32\\lib\\email\\iterators.py',
   'PYMODULE'),
  ('email.generator',
   'c:\\users\\peter\\appdata\\local\\programs\\python\\python37-32\\lib\\email\\generator.py',
   'PYMODULE'),
  ('random',
   'c:\\users\\peter\\appdata\\local\\programs\\python\\python37-32\\lib\\random.py',
   'PYMODULE'),
  ('bisect',
   'c:\\users\\peter\\appdata\\local\\programs\\python\\python37-32\\lib\\bisect.py',
   'PYMODULE'),
  ('hashlib',
   'c:\\users\\peter\\appdata\\local\\programs\\python\\python37-32\\lib\\hashlib.py',
   'PYMODULE'),
  ('email._encoded_words',
   'c:\\users\\peter\\appdata\\local\\programs\\python\\python37-32\\lib\\email\\_encoded_words.py',
   'PYMODULE'),
  ('base64',
   'c:\\users\\peter\\appdata\\local\\programs\\python\\python37-32\\lib\\base64.py',
   'PYMODULE'),
  ('email.charset',
   'c:\\users\\peter\\appdata\\local\\programs\\python\\python37-32\\lib\\email\\charset.py',
   'PYMODULE'),
  ('email.encoders',
   'c:\\users\\peter\\appdata\\local\\programs\\python\\python37-32\\lib\\email\\encoders.py',
   'PYMODULE'),
  ('email.base64mime',
   'c:\\users\\peter\\appdata\\local\\programs\\python\\python37-32\\lib\\email\\base64mime.py',
   'PYMODULE'),
  ('email._policybase',
   'c:\\users\\peter\\appdata\\local\\programs\\python\\python37-32\\lib\\email\\_policybase.py',
   'PYMODULE'),
  ('email.header',
   'c:\\users\\peter\\appdata\\local\\programs\\python\\python37-32\\lib\\email\\header.py',
   'PYMODULE'),
  ('email.errors',
   'c:\\users\\peter\\appdata\\local\\programs\\python\\python37-32\\lib\\email\\errors.py',
   'PYMODULE'),
  ('email.utils',
   'c:\\users\\peter\\appdata\\local\\programs\\python\\python37-32\\lib\\email\\utils.py',
   'PYMODULE'),
  ('email._parseaddr',
   'c:\\users\\peter\\appdata\\local\\programs\\python\\python37-32\\lib\\email\\_parseaddr.py',
   'PYMODULE'),
  ('email',
   'c:\\users\\peter\\appdata\\local\\programs\\python\\python37-32\\lib\\email\\__init__.py',
   'PYMODULE'),
  ('email.parser',
   'c:\\users\\peter\\appdata\\local\\programs\\python\\python37-32\\lib\\email\\parser.py',
   'PYMODULE'),
  ('email.feedparser',
   'c:\\users\\peter\\appdata\\local\\programs\\python\\python37-32\\lib\\email\\feedparser.py',
   'PYMODULE'),
  ('quopri',
   'c:\\users\\peter\\appdata\\local\\programs\\python\\python37-32\\lib\\quopri.py',
   'PYMODULE'),
  ('uu',
   'c:\\users\\peter\\appdata\\local\\programs\\python\\python37-32\\lib\\uu.py',
   'PYMODULE'),
  ('optparse',
   'c:\\users\\peter\\appdata\\local\\programs\\python\\python37-32\\lib\\optparse.py',
   'PYMODULE'),
  ('http.server',
   'c:\\users\\peter\\appdata\\local\\programs\\python\\python37-32\\lib\\http\\server.py',
   'PYMODULE'),
  ('http',
   'c:\\users\\peter\\appdata\\local\\programs\\python\\python37-32\\lib\\http\\__init__.py',
   'PYMODULE'),
  ('socketserver',
   'c:\\users\\peter\\appdata\\local\\programs\\python\\python37-32\\lib\\socketserver.py',
   'PYMODULE'),
  ('mimetypes',
   'c:\\users\\peter\\appdata\\local\\programs\\python\\python37-32\\lib\\mimetypes.py',
   'PYMODULE'),
  ('http.client',
   'c:\\users\\peter\\appdata\\local\\programs\\python\\python37-32\\lib\\http\\client.py',
   'PYMODULE'),
  ('ssl',
   'c:\\users\\peter\\appdata\\local\\programs\\python\\python37-32\\lib\\ssl.py',
   'PYMODULE'),
  ('html',
   'c:\\users\\peter\\appdata\\local\\programs\\python\\python37-32\\lib\\html\\__init__.py',
   'PYMODULE'),
  ('html.entities',
   'c:\\users\\peter\\appdata\\local\\programs\\python\\python37-32\\lib\\html\\entities.py',
   'PYMODULE'),
  ('pydoc_data.topics',
   'c:\\users\\peter\\appdata\\local\\programs\\python\\python37-32\\lib\\pydoc_data\\topics.py',
   'PYMODULE'),
  ('pydoc_data',
   'c:\\users\\peter\\appdata\\local\\programs\\python\\python37-32\\lib\\pydoc_data\\__init__.py',
   'PYMODULE'),
  ('tty',
   'c:\\users\\peter\\appdata\\local\\programs\\python\\python37-32\\lib\\tty.py',
   'PYMODULE'),
  ('subprocess',
   'c:\\users\\peter\\appdata\\local\\programs\\python\\python37-32\\lib\\subprocess.py',
   'PYMODULE'),
  ('tempfile',
   'c:\\users\\peter\\appdata\\local\\programs\\python\\python37-32\\lib\\tempfile.py',
   'PYMODULE'),
  ('urllib.parse',
   'c:\\users\\peter\\appdata\\local\\programs\\python\\python37-32\\lib\\urllib\\parse.py',
   'PYMODULE'),
  ('platform',
   'c:\\users\\peter\\appdata\\local\\programs\\python\\python37-32\\lib\\platform.py',
   'PYMODULE'),
  ('plistlib',
   'c:\\users\\peter\\appdata\\local\\programs\\python\\python37-32\\lib\\plistlib.py',
   'PYMODULE'),
  ('xml.parsers.expat',
   'c:\\users\\peter\\appdata\\local\\programs\\python\\python37-32\\lib\\xml\\parsers\\expat.py',
   'PYMODULE'),
  ('xml.parsers',
   'c:\\users\\peter\\appdata\\local\\programs\\python\\python37-32\\lib\\xml\\parsers\\__init__.py',
   'PYMODULE'),
  ('xml',
   'c:\\users\\peter\\appdata\\local\\programs\\python\\python37-32\\lib\\xml\\__init__.py',
   'PYMODULE'),
  ('xml.sax.expatreader',
   'c:\\users\\peter\\appdata\\local\\programs\\python\\python37-32\\lib\\xml\\sax\\expatreader.py',
   'PYMODULE'),
  ('xml.sax.saxutils',
   'c:\\users\\peter\\appdata\\local\\programs\\python\\python37-32\\lib\\xml\\sax\\saxutils.py',
   'PYMODULE'),
  ('urllib.request',
   'c:\\users\\peter\\appdata\\local\\programs\\python\\python37-32\\lib\\urllib\\request.py',
   'PYMODULE'),
  ('getpass',
   'c:\\users\\peter\\appdata\\local\\programs\\python\\python37-32\\lib\\getpass.py',
   'PYMODULE'),
  ('nturl2path',
   'c:\\users\\peter\\appdata\\local\\programs\\python\\python37-32\\lib\\nturl2path.py',
   'PYMODULE'),
  ('ftplib',
   'c:\\users\\peter\\appdata\\local\\programs\\python\\python37-32\\lib\\ftplib.py',
   'PYMODULE'),
  ('netrc',
   'c:\\users\\peter\\appdata\\local\\programs\\python\\python37-32\\lib\\netrc.py',
   'PYMODULE'),
  ('http.cookiejar',
   'c:\\users\\peter\\appdata\\local\\programs\\python\\python37-32\\lib\\http\\cookiejar.py',
   'PYMODULE'),
  ('urllib.response',
   'c:\\users\\peter\\appdata\\local\\programs\\python\\python37-32\\lib\\urllib\\response.py',
   'PYMODULE'),
  ('urllib.error',
   'c:\\users\\peter\\appdata\\local\\programs\\python\\python37-32\\lib\\urllib\\error.py',
   'PYMODULE'),
  ('xml.sax',
   'c:\\users\\peter\\appdata\\local\\programs\\python\\python37-32\\lib\\xml\\sax\\__init__.py',
   'PYMODULE'),
  ('xml.sax.handler',
   'c:\\users\\peter\\appdata\\local\\programs\\python\\python37-32\\lib\\xml\\sax\\handler.py',
   'PYMODULE'),
  ('xml.sax._exceptions',
   'c:\\users\\peter\\appdata\\local\\programs\\python\\python37-32\\lib\\xml\\sax\\_exceptions.py',
   'PYMODULE'),
  ('xml.sax.xmlreader',
   'c:\\users\\peter\\appdata\\local\\programs\\python\\python37-32\\lib\\xml\\sax\\xmlreader.py',
   'PYMODULE'),
  ('pkgutil',
   'c:\\users\\peter\\appdata\\local\\programs\\python\\python37-32\\lib\\pkgutil.py',
   'PYMODULE'),
  ('importlib',
   'c:\\users\\peter\\appdata\\local\\programs\\python\\python37-32\\lib\\importlib\\__init__.py',
   'PYMODULE'),
  ('importlib.abc',
   'c:\\users\\peter\\appdata\\local\\programs\\python\\python37-32\\lib\\importlib\\abc.py',
   'PYMODULE'),
  ('importlib.util',
   'c:\\users\\peter\\appdata\\local\\programs\\python\\python37-32\\lib\\importlib\\util.py',
   'PYMODULE'),
  ('importlib.machinery',
   'c:\\users\\peter\\appdata\\local\\programs\\python\\python37-32\\lib\\importlib\\machinery.py',
   'PYMODULE'),
  ('importlib._bootstrap_external',
   'c:\\users\\peter\\appdata\\local\\programs\\python\\python37-32\\lib\\importlib\\_bootstrap_external.py',
   'PYMODULE'),
  ('importlib._bootstrap',
   'c:\\users\\peter\\appdata\\local\\programs\\python\\python37-32\\lib\\importlib\\_bootstrap.py',
   'PYMODULE'),
  ('runpy',
   'c:\\users\\peter\\appdata\\local\\programs\\python\\python37-32\\lib\\runpy.py',
   'PYMODULE'),
  ('shlex',
   'c:\\users\\peter\\appdata\\local\\programs\\python\\python37-32\\lib\\shlex.py',
   'PYMODULE'),
  ('glob',
   'c:\\users\\peter\\appdata\\local\\programs\\python\\python37-32\\lib\\glob.py',
   'PYMODULE'),
  ('code',
   'c:\\users\\peter\\appdata\\local\\programs\\python\\python37-32\\lib\\code.py',
   'PYMODULE'),
  ('codeop',
   'c:\\users\\peter\\appdata\\local\\programs\\python\\python37-32\\lib\\codeop.py',
   'PYMODULE'),
  ('dis',
   'c:\\users\\peter\\appdata\\local\\programs\\python\\python37-32\\lib\\dis.py',
   'PYMODULE'),
  ('opcode',
   'c:\\users\\peter\\appdata\\local\\programs\\python\\python37-32\\lib\\opcode.py',
   'PYMODULE'),
  ('bdb',
   'c:\\users\\peter\\appdata\\local\\programs\\python\\python37-32\\lib\\bdb.py',
   'PYMODULE'),
  ('cmd',
   'c:\\users\\peter\\appdata\\local\\programs\\python\\python37-32\\lib\\cmd.py',
   'PYMODULE'),
  ('inspect',
   'c:\\users\\peter\\appdata\\local\\programs\\python\\python37-32\\lib\\inspect.py',
   'PYMODULE'),
  ('ast',
   'c:\\users\\peter\\appdata\\local\\programs\\python\\python37-32\\lib\\ast.py',
   'PYMODULE'),
  ('difflib',
   'c:\\users\\peter\\appdata\\local\\programs\\python\\python37-32\\lib\\difflib.py',
   'PYMODULE'),
  ('__future__',
   'c:\\users\\peter\\appdata\\local\\programs\\python\\python37-32\\lib\\__future__.py',
   'PYMODULE'),
  ('stringprep',
   'c:\\users\\peter\\appdata\\local\\programs\\python\\python37-32\\lib\\stringprep.py',
   'PYMODULE'),
  ('typing',
   'c:\\users\\peter\\appdata\\local\\programs\\python\\python37-32\\lib\\typing.py',
   'PYMODULE'),
  ('tracemalloc',
   'c:\\users\\peter\\appdata\\local\\programs\\python\\python37-32\\lib\\tracemalloc.py',
   'PYMODULE'),
  ('mysql_dbconfig',
   'C:\\Users\\Peter\\workspace_idea\\synergis\\src\\mysql_dbconfig.py',
   'PYMODULE'),
  ('configparser',
   'c:\\users\\peter\\appdata\\local\\programs\\python\\python37-32\\lib\\configparser.py',
   'PYMODULE'),
  ('connect_mysql',
   'C:\\Users\\Peter\\workspace_idea\\synergis\\src\\connect_mysql.py',
   'PYMODULE'),
  ('mysql.connector',
   'c:\\users\\peter\\appdata\\local\\programs\\python\\python37-32\\lib\\site-packages\\mysql\\connector\\__init__.py',
   'PYMODULE'),
  ('mysql',
   'c:\\users\\peter\\appdata\\local\\programs\\python\\python37-32\\lib\\site-packages\\mysql\\__init__.py',
   'PYMODULE'),
  ('mysql.connector.pooling',
   'c:\\users\\peter\\appdata\\local\\programs\\python\\python37-32\\lib\\site-packages\\mysql\\connector\\pooling.py',
   'PYMODULE'),
  ('queue',
   'c:\\users\\peter\\appdata\\local\\programs\\python\\python37-32\\lib\\queue.py',
   'PYMODULE'),
  ('uuid',
   'c:\\users\\peter\\appdata\\local\\programs\\python\\python37-32\\lib\\uuid.py',
   'PYMODULE'),
  ('ctypes.util',
   'c:\\users\\peter\\appdata\\local\\programs\\python\\python37-32\\lib\\ctypes\\util.py',
   'PYMODULE'),
  ('ctypes._aix',
   'c:\\users\\peter\\appdata\\local\\programs\\python\\python37-32\\lib\\ctypes\\_aix.py',
   'PYMODULE'),
  ('ctypes.macholib.dyld',
   'c:\\users\\peter\\appdata\\local\\programs\\python\\python37-32\\lib\\ctypes\\macholib\\dyld.py',
   'PYMODULE'),
  ('ctypes.macholib',
   'c:\\users\\peter\\appdata\\local\\programs\\python\\python37-32\\lib\\ctypes\\macholib\\__init__.py',
   'PYMODULE'),
  ('ctypes.macholib.dylib',
   'c:\\users\\peter\\appdata\\local\\programs\\python\\python37-32\\lib\\ctypes\\macholib\\dylib.py',
   'PYMODULE'),
  ('ctypes.macholib.framework',
   'c:\\users\\peter\\appdata\\local\\programs\\python\\python37-32\\lib\\ctypes\\macholib\\framework.py',
   'PYMODULE'),
  ('ctypes',
   'c:\\users\\peter\\appdata\\local\\programs\\python\\python37-32\\lib\\ctypes\\__init__.py',
   'PYMODULE'),
  ('ctypes._endian',
   'c:\\users\\peter\\appdata\\local\\programs\\python\\python37-32\\lib\\ctypes\\_endian.py',
   'PYMODULE'),
  ('mysql.connector.optionfiles',
   'c:\\users\\peter\\appdata\\local\\programs\\python\\python37-32\\lib\\site-packages\\mysql\\connector\\optionfiles.py',
   'PYMODULE'),
  ('mysql.connector.catch23',
   'c:\\users\\peter\\appdata\\local\\programs\\python\\python37-32\\lib\\site-packages\\mysql\\connector\\catch23.py',
   'PYMODULE'),
  ('mysql.connector.custom_types',
   'c:\\users\\peter\\appdata\\local\\programs\\python\\python37-32\\lib\\site-packages\\mysql\\connector\\custom_types.py',
   'PYMODULE'),
  ('decimal',
   'c:\\users\\peter\\appdata\\local\\programs\\python\\python37-32\\lib\\decimal.py',
   'PYMODULE'),
  ('_pydecimal',
   'c:\\users\\peter\\appdata\\local\\programs\\python\\python37-32\\lib\\_pydecimal.py',
   'PYMODULE'),
  ('contextvars',
   'c:\\users\\peter\\appdata\\local\\programs\\python\\python37-32\\lib\\contextvars.py',
   'PYMODULE'),
  ('numbers',
   'c:\\users\\peter\\appdata\\local\\programs\\python\\python37-32\\lib\\numbers.py',
   'PYMODULE'),
  ('mysql.connector.dbapi',
   'c:\\users\\peter\\appdata\\local\\programs\\python\\python37-32\\lib\\site-packages\\mysql\\connector\\dbapi.py',
   'PYMODULE'),
  ('mysql.connector.constants',
   'c:\\users\\peter\\appdata\\local\\programs\\python\\python37-32\\lib\\site-packages\\mysql\\connector\\constants.py',
   'PYMODULE'),
  ('mysql.connector.charsets',
   'c:\\users\\peter\\appdata\\local\\programs\\python\\python37-32\\lib\\site-packages\\mysql\\connector\\charsets.py',
   'PYMODULE'),
  ('mysql.connector.connection',
   'c:\\users\\peter\\appdata\\local\\programs\\python\\python37-32\\lib\\site-packages\\mysql\\connector\\connection.py',
   'PYMODULE'),
  ('mysql.connector.abstracts',
   'c:\\users\\peter\\appdata\\local\\programs\\python\\python37-32\\lib\\site-packages\\mysql\\connector\\abstracts.py',
   'PYMODULE'),
  ('mysql.connector.protocol',
   'c:\\users\\peter\\appdata\\local\\programs\\python\\python37-32\\lib\\site-packages\\mysql\\connector\\protocol.py',
   'PYMODULE'),
  ('mysql.connector.network',
   'c:\\users\\peter\\appdata\\local\\programs\\python\\python37-32\\lib\\site-packages\\mysql\\connector\\network.py',
   'PYMODULE'),
  ('mysql.connector.cursor',
   'c:\\users\\peter\\appdata\\local\\programs\\python\\python37-32\\lib\\site-packages\\mysql\\connector\\cursor.py',
   'PYMODULE'),
  ('mysql.connector.conversion',
   'c:\\users\\peter\\appdata\\local\\programs\\python\\python37-32\\lib\\site-packages\\mysql\\connector\\conversion.py',
   'PYMODULE'),
  ('mysql.connector.authentication',
   'c:\\users\\peter\\appdata\\local\\programs\\python\\python37-32\\lib\\site-packages\\mysql\\connector\\authentication.py',
   'PYMODULE'),
  ('mysql.connector.errors',
   'c:\\users\\peter\\appdata\\local\\programs\\python\\python37-32\\lib\\site-packages\\mysql\\connector\\errors.py',
   'PYMODULE'),
  ('mysql.connector.locales',
   'c:\\users\\peter\\appdata\\local\\programs\\python\\python37-32\\lib\\site-packages\\mysql\\connector\\locales\\__init__.py',
   'PYMODULE'),
  ('mysql.connector.errorcode',
   'c:\\users\\peter\\appdata\\local\\programs\\python\\python37-32\\lib\\site-packages\\mysql\\connector\\errorcode.py',
   'PYMODULE'),
  ('mysql.connector.utils',
   'c:\\users\\peter\\appdata\\local\\programs\\python\\python37-32\\lib\\site-packages\\mysql\\connector\\utils.py',
   'PYMODULE'),
  ('mysql.connector.version',
   'c:\\users\\peter\\appdata\\local\\programs\\python\\python37-32\\lib\\site-packages\\mysql\\connector\\version.py',
   'PYMODULE'),
  ('dns.exception',
   'c:\\users\\peter\\appdata\\local\\programs\\python\\python37-32\\lib\\site-packages\\dns\\exception.py',
   'PYMODULE'),
  ('os',
   'c:\\users\\peter\\appdata\\local\\programs\\python\\python37-32\\lib\\os.py',
   'PYMODULE'),
  ('dns.resolver',
   'c:\\users\\peter\\appdata\\local\\programs\\python\\python37-32\\lib\\site-packages\\dns\\resolver.py',
   'PYMODULE'),
  ('dns._compat',
   'c:\\users\\peter\\appdata\\local\\programs\\python\\python37-32\\lib\\site-packages\\dns\\_compat.py',
   'PYMODULE'),
  ('dns.tsig',
   'c:\\users\\peter\\appdata\\local\\programs\\python\\python37-32\\lib\\site-packages\\dns\\tsig.py',
   'PYMODULE'),
  ('hmac',
   'c:\\users\\peter\\appdata\\local\\programs\\python\\python37-32\\lib\\hmac.py',
   'PYMODULE'),
  ('dns.reversename',
   'c:\\users\\peter\\appdata\\local\\programs\\python\\python37-32\\lib\\site-packages\\dns\\reversename.py',
   'PYMODULE'),
  ('dns.rdatatype',
   'c:\\users\\peter\\appdata\\local\\programs\\python\\python37-32\\lib\\site-packages\\dns\\rdatatype.py',
   'PYMODULE'),
  ('dns.rdataclass',
   'c:\\users\\peter\\appdata\\local\\programs\\python\\python37-32\\lib\\site-packages\\dns\\rdataclass.py',
   'PYMODULE'),
  ('dns.rcode',
   'c:\\users\\peter\\appdata\\local\\programs\\python\\python37-32\\lib\\site-packages\\dns\\rcode.py',
   'PYMODULE'),
  ('dns.query',
   'c:\\users\\peter\\appdata\\local\\programs\\python\\python37-32\\lib\\site-packages\\dns\\query.py',
   'PYMODULE'),
  ('dns.inet',
   'c:\\users\\peter\\appdata\\local\\programs\\python\\python37-32\\lib\\site-packages\\dns\\inet.py',
   'PYMODULE'),
  ('dns.name',
   'c:\\users\\peter\\appdata\\local\\programs\\python\\python37-32\\lib\\site-packages\\dns\\name.py',
   'PYMODULE'),
  ('dns.wiredata',
   'c:\\users\\peter\\appdata\\local\\programs\\python\\python37-32\\lib\\site-packages\\dns\\wiredata.py',
   'PYMODULE'),
  ('dns.message',
   'c:\\users\\peter\\appdata\\local\\programs\\python\\python37-32\\lib\\site-packages\\dns\\message.py',
   'PYMODULE'),
  ('dns.renderer',
   'c:\\users\\peter\\appdata\\local\\programs\\python\\python37-32\\lib\\site-packages\\dns\\renderer.py',
   'PYMODULE'),
  ('dns.rrset',
   'c:\\users\\peter\\appdata\\local\\programs\\python\\python37-32\\lib\\site-packages\\dns\\rrset.py',
   'PYMODULE'),
  ('dns.rdataset',
   'c:\\users\\peter\\appdata\\local\\programs\\python\\python37-32\\lib\\site-packages\\dns\\rdataset.py',
   'PYMODULE'),
  ('dns.set',
   'c:\\users\\peter\\appdata\\local\\programs\\python\\python37-32\\lib\\site-packages\\dns\\set.py',
   'PYMODULE'),
  ('dns.rdata',
   'c:\\users\\peter\\appdata\\local\\programs\\python\\python37-32\\lib\\site-packages\\dns\\rdata.py',
   'PYMODULE'),
  ('dns.rdtypes.ANY.HIP',
   'c:\\users\\peter\\appdata\\local\\programs\\python\\python37-32\\lib\\site-packages\\dns\\rdtypes\\ANY\\HIP.py',
   'PYMODULE'),
  ('dns.rdtypes.IN.APL',
   'c:\\users\\peter\\appdata\\local\\programs\\python\\python37-32\\lib\\site-packages\\dns\\rdtypes\\IN\\APL.py',
   'PYMODULE'),
  ('dns.rdtypes.IN.A',
   'c:\\users\\peter\\appdata\\local\\programs\\python\\python37-32\\lib\\site-packages\\dns\\rdtypes\\IN\\A.py',
   'PYMODULE'),
  ('dns.rdtypes',
   'c:\\users\\peter\\appdata\\local\\programs\\python\\python37-32\\lib\\site-packages\\dns\\rdtypes\\__init__.py',
   'PYMODULE'),
  ('dns.rdtypes.IN.NAPTR',
   'c:\\users\\peter\\appdata\\local\\programs\\python\\python37-32\\lib\\site-packages\\dns\\rdtypes\\IN\\NAPTR.py',
   'PYMODULE'),
  ('dns.rdtypes.IN',
   'c:\\users\\peter\\appdata\\local\\programs\\python\\python37-32\\lib\\site-packages\\dns\\rdtypes\\IN\\__init__.py',
   'PYMODULE'),
  ('dns.rdtypes.IN.PX',
   'c:\\users\\peter\\appdata\\local\\programs\\python\\python37-32\\lib\\site-packages\\dns\\rdtypes\\IN\\PX.py',
   'PYMODULE'),
  ('dns.rdtypes.IN.KX',
   'c:\\users\\peter\\appdata\\local\\programs\\python\\python37-32\\lib\\site-packages\\dns\\rdtypes\\IN\\KX.py',
   'PYMODULE'),
  ('dns.rdtypes.ANY.NSEC3',
   'c:\\users\\peter\\appdata\\local\\programs\\python\\python37-32\\lib\\site-packages\\dns\\rdtypes\\ANY\\NSEC3.py',
   'PYMODULE'),
  ('dns.rdtypes.ANY.OPENPGPKEY',
   'c:\\users\\peter\\appdata\\local\\programs\\python\\python37-32\\lib\\site-packages\\dns\\rdtypes\\ANY\\OPENPGPKEY.py',
   'PYMODULE'),
  ('dns.rdtypes.ANY.EUI48',
   'c:\\users\\peter\\appdata\\local\\programs\\python\\python37-32\\lib\\site-packages\\dns\\rdtypes\\ANY\\EUI48.py',
   'PYMODULE'),
  ('dns.rdtypes.dsbase',
   'c:\\users\\peter\\appdata\\local\\programs\\python\\python37-32\\lib\\site-packages\\dns\\rdtypes\\dsbase.py',
   'PYMODULE'),
  ('dns.rdtypes.ANY.CSYNC',
   'c:\\users\\peter\\appdata\\local\\programs\\python\\python37-32\\lib\\site-packages\\dns\\rdtypes\\ANY\\CSYNC.py',
   'PYMODULE'),
  ('dns.rdtypes.ANY.NSEC',
   'c:\\users\\peter\\appdata\\local\\programs\\python\\python37-32\\lib\\site-packages\\dns\\rdtypes\\ANY\\NSEC.py',
   'PYMODULE'),
  ('dns.rdtypes.CH.A',
   'c:\\users\\peter\\appdata\\local\\programs\\python\\python37-32\\lib\\site-packages\\dns\\rdtypes\\CH\\A.py',
   'PYMODULE'),
  ('dns.rdtypes.CH',
   'c:\\users\\peter\\appdata\\local\\programs\\python\\python37-32\\lib\\site-packages\\dns\\rdtypes\\CH\\__init__.py',
   'PYMODULE'),
  ('dns.rdtypes.ANY.CDNSKEY',
   'c:\\users\\peter\\appdata\\local\\programs\\python\\python37-32\\lib\\site-packages\\dns\\rdtypes\\ANY\\CDNSKEY.py',
   'PYMODULE'),
  ('dns.rdtypes.euibase',
   'c:\\users\\peter\\appdata\\local\\programs\\python\\python37-32\\lib\\site-packages\\dns\\rdtypes\\euibase.py',
   'PYMODULE'),
  ('dns.rdtypes.ANY.PTR',
   'c:\\users\\peter\\appdata\\local\\programs\\python\\python37-32\\lib\\site-packages\\dns\\rdtypes\\ANY\\PTR.py',
   'PYMODULE'),
  ('dns.rdtypes.ANY.HINFO',
   'c:\\users\\peter\\appdata\\local\\programs\\python\\python37-32\\lib\\site-packages\\dns\\rdtypes\\ANY\\HINFO.py',
   'PYMODULE'),
  ('dns.rdtypes.ANY.CAA',
   'c:\\users\\peter\\appdata\\local\\programs\\python\\python37-32\\lib\\site-packages\\dns\\rdtypes\\ANY\\CAA.py',
   'PYMODULE'),
  ('dns.rdtypes.ANY.DNAME',
   'c:\\users\\peter\\appdata\\local\\programs\\python\\python37-32\\lib\\site-packages\\dns\\rdtypes\\ANY\\DNAME.py',
   'PYMODULE'),
  ('dns.rdtypes.txtbase',
   'c:\\users\\peter\\appdata\\local\\programs\\python\\python37-32\\lib\\site-packages\\dns\\rdtypes\\txtbase.py',
   'PYMODULE'),
  ('dns.rdtypes.ANY.GPOS',
   'c:\\users\\peter\\appdata\\local\\programs\\python\\python37-32\\lib\\site-packages\\dns\\rdtypes\\ANY\\GPOS.py',
   'PYMODULE'),
  ('dns.rdtypes.IN.WKS',
   'c:\\users\\peter\\appdata\\local\\programs\\python\\python37-32\\lib\\site-packages\\dns\\rdtypes\\IN\\WKS.py',
   'PYMODULE'),
  ('dns.rdtypes.ANY.URI',
   'c:\\users\\peter\\appdata\\local\\programs\\python\\python37-32\\lib\\site-packages\\dns\\rdtypes\\ANY\\URI.py',
   'PYMODULE'),
  ('dns.rdtypes.ANY',
   'c:\\users\\peter\\appdata\\local\\programs\\python\\python37-32\\lib\\site-packages\\dns\\rdtypes\\ANY\\__init__.py',
   'PYMODULE'),
  ('dns.rdtypes.IN.AAAA',
   'c:\\users\\peter\\appdata\\local\\programs\\python\\python37-32\\lib\\site-packages\\dns\\rdtypes\\IN\\AAAA.py',
   'PYMODULE'),
  ('dns.rdtypes.ANY.NS',
   'c:\\users\\peter\\appdata\\local\\programs\\python\\python37-32\\lib\\site-packages\\dns\\rdtypes\\ANY\\NS.py',
   'PYMODULE'),
  ('dns.rdtypes.ANY.SSHFP',
   'c:\\users\\peter\\appdata\\local\\programs\\python\\python37-32\\lib\\site-packages\\dns\\rdtypes\\ANY\\SSHFP.py',
   'PYMODULE'),
  ('dns.rdtypes.ANY.SOA',
   'c:\\users\\peter\\appdata\\local\\programs\\python\\python37-32\\lib\\site-packages\\dns\\rdtypes\\ANY\\SOA.py',
   'PYMODULE'),
  ('dns.rdtypes.ANY.ISDN',
   'c:\\users\\peter\\appdata\\local\\programs\\python\\python37-32\\lib\\site-packages\\dns\\rdtypes\\ANY\\ISDN.py',
   'PYMODULE'),
  ('dns.rdtypes.ANY.CERT',
   'c:\\users\\peter\\appdata\\local\\programs\\python\\python37-32\\lib\\site-packages\\dns\\rdtypes\\ANY\\CERT.py',
   'PYMODULE'),
  ('dns.dnssec',
   'c:\\users\\peter\\appdata\\local\\programs\\python\\python37-32\\lib\\site-packages\\dns\\dnssec.py',
   'PYMODULE'),
  ('dns.node',
   'c:\\users\\peter\\appdata\\local\\programs\\python\\python37-32\\lib\\site-packages\\dns\\node.py',
   'PYMODULE'),
  ('dns.rdtypes.IN.NSAP_PTR',
   'c:\\users\\peter\\appdata\\local\\programs\\python\\python37-32\\lib\\site-packages\\dns\\rdtypes\\IN\\NSAP_PTR.py',
   'PYMODULE'),
  ('dns.rdtypes.IN.DHCID',
   'c:\\users\\peter\\appdata\\local\\programs\\python\\python37-32\\lib\\site-packages\\dns\\rdtypes\\IN\\DHCID.py',
   'PYMODULE'),
  ('dns.rdtypes.ANY.TLSA',
   'c:\\users\\peter\\appdata\\local\\programs\\python\\python37-32\\lib\\site-packages\\dns\\rdtypes\\ANY\\TLSA.py',
   'PYMODULE'),
  ('dns.rdtypes.ANY.RT',
   'c:\\users\\peter\\appdata\\local\\programs\\python\\python37-32\\lib\\site-packages\\dns\\rdtypes\\ANY\\RT.py',
   'PYMODULE'),
  ('dns.rdtypes.ANY.CNAME',
   'c:\\users\\peter\\appdata\\local\\programs\\python\\python37-32\\lib\\site-packages\\dns\\rdtypes\\ANY\\CNAME.py',
   'PYMODULE'),
  ('dns.rdtypes.ANY.CDS',
   'c:\\users\\peter\\appdata\\local\\programs\\python\\python37-32\\lib\\site-packages\\dns\\rdtypes\\ANY\\CDS.py',
   'PYMODULE'),
  ('dns.rdtypes.ANY.DS',
   'c:\\users\\peter\\appdata\\local\\programs\\python\\python37-32\\lib\\site-packages\\dns\\rdtypes\\ANY\\DS.py',
   'PYMODULE'),
  ('dns.rdtypes.dnskeybase',
   'c:\\users\\peter\\appdata\\local\\programs\\python\\python37-32\\lib\\site-packages\\dns\\rdtypes\\dnskeybase.py',
   'PYMODULE'),
  ('dns.rdtypes.ANY.LOC',
   'c:\\users\\peter\\appdata\\local\\programs\\python\\python37-32\\lib\\site-packages\\dns\\rdtypes\\ANY\\LOC.py',
   'PYMODULE'),
  ('dns.rdtypes.ANY.SPF',
   'c:\\users\\peter\\appdata\\local\\programs\\python\\python37-32\\lib\\site-packages\\dns\\rdtypes\\ANY\\SPF.py',
   'PYMODULE'),
  ('dns.rdtypes.ANY.DLV',
   'c:\\users\\peter\\appdata\\local\\programs\\python\\python37-32\\lib\\site-packages\\dns\\rdtypes\\ANY\\DLV.py',
   'PYMODULE'),
  ('dns.rdtypes.nsbase',
   'c:\\users\\peter\\appdata\\local\\programs\\python\\python37-32\\lib\\site-packages\\dns\\rdtypes\\nsbase.py',
   'PYMODULE'),
  ('dns.rdtypes.ANY.AVC',
   'c:\\users\\peter\\appdata\\local\\programs\\python\\python37-32\\lib\\site-packages\\dns\\rdtypes\\ANY\\AVC.py',
   'PYMODULE'),
  ('dns.rdtypes.ANY.MX',
   'c:\\users\\peter\\appdata\\local\\programs\\python\\python37-32\\lib\\site-packages\\dns\\rdtypes\\ANY\\MX.py',
   'PYMODULE'),
  ('dns.rdtypes.ANY.EUI64',
   'c:\\users\\peter\\appdata\\local\\programs\\python\\python37-32\\lib\\site-packages\\dns\\rdtypes\\ANY\\EUI64.py',
   'PYMODULE'),
  ('dns.rdtypes.ANY.X25',
   'c:\\users\\peter\\appdata\\local\\programs\\python\\python37-32\\lib\\site-packages\\dns\\rdtypes\\ANY\\X25.py',
   'PYMODULE'),
  ('dns.rdtypes.ANY.NSEC3PARAM',
   'c:\\users\\peter\\appdata\\local\\programs\\python\\python37-32\\lib\\site-packages\\dns\\rdtypes\\ANY\\NSEC3PARAM.py',
   'PYMODULE'),
  ('dns.rdtypes.IN.SRV',
   'c:\\users\\peter\\appdata\\local\\programs\\python\\python37-32\\lib\\site-packages\\dns\\rdtypes\\IN\\SRV.py',
   'PYMODULE'),
  ('dns.rdtypes.ANY.TXT',
   'c:\\users\\peter\\appdata\\local\\programs\\python\\python37-32\\lib\\site-packages\\dns\\rdtypes\\ANY\\TXT.py',
   'PYMODULE'),
  ('dns.rdtypes.ANY.DNSKEY',
   'c:\\users\\peter\\appdata\\local\\programs\\python\\python37-32\\lib\\site-packages\\dns\\rdtypes\\ANY\\DNSKEY.py',
   'PYMODULE'),
  ('dns.rdtypes.mxbase',
   'c:\\users\\peter\\appdata\\local\\programs\\python\\python37-32\\lib\\site-packages\\dns\\rdtypes\\mxbase.py',
   'PYMODULE'),
  ('dns.rdtypes.ANY.RRSIG',
   'c:\\users\\peter\\appdata\\local\\programs\\python\\python37-32\\lib\\site-packages\\dns\\rdtypes\\ANY\\RRSIG.py',
   'PYMODULE'),
  ('dns.rdtypes.IN.NSAP',
   'c:\\users\\peter\\appdata\\local\\programs\\python\\python37-32\\lib\\site-packages\\dns\\rdtypes\\IN\\NSAP.py',
   'PYMODULE'),
  ('dns.rdtypes.ANY.AFSDB',
   'c:\\users\\peter\\appdata\\local\\programs\\python\\python37-32\\lib\\site-packages\\dns\\rdtypes\\ANY\\AFSDB.py',
   'PYMODULE'),
  ('dns.rdtypes.IN.IPSECKEY',
   'c:\\users\\peter\\appdata\\local\\programs\\python\\python37-32\\lib\\site-packages\\dns\\rdtypes\\IN\\IPSECKEY.py',
   'PYMODULE'),
  ('dns.rdtypes.ANY.RP',
   'c:\\users\\peter\\appdata\\local\\programs\\python\\python37-32\\lib\\site-packages\\dns\\rdtypes\\ANY\\RP.py',
   'PYMODULE'),
  ('dns.tokenizer',
   'c:\\users\\peter\\appdata\\local\\programs\\python\\python37-32\\lib\\site-packages\\dns\\tokenizer.py',
   'PYMODULE'),
  ('dns.ttl',
   'c:\\users\\peter\\appdata\\local\\programs\\python\\python37-32\\lib\\site-packages\\dns\\ttl.py',
   'PYMODULE'),
  ('dns.entropy',
   'c:\\users\\peter\\appdata\\local\\programs\\python\\python37-32\\lib\\site-packages\\dns\\entropy.py',
   'PYMODULE'),
  ('dns.opcode',
   'c:\\users\\peter\\appdata\\local\\programs\\python\\python37-32\\lib\\site-packages\\dns\\opcode.py',
   'PYMODULE'),
  ('dns.edns',
   'c:\\users\\peter\\appdata\\local\\programs\\python\\python37-32\\lib\\site-packages\\dns\\edns.py',
   'PYMODULE'),
  ('dns.ipv6',
   'c:\\users\\peter\\appdata\\local\\programs\\python\\python37-32\\lib\\site-packages\\dns\\ipv6.py',
   'PYMODULE'),
  ('dns.ipv4',
   'c:\\users\\peter\\appdata\\local\\programs\\python\\python37-32\\lib\\site-packages\\dns\\ipv4.py',
   'PYMODULE'),
  ('dns.flags',
   'c:\\users\\peter\\appdata\\local\\programs\\python\\python37-32\\lib\\site-packages\\dns\\flags.py',
   'PYMODULE'),
  ('dummy_threading',
   'c:\\users\\peter\\appdata\\local\\programs\\python\\python37-32\\lib\\dummy_threading.py',
   'PYMODULE'),
  ('_dummy_thread',
   'c:\\users\\peter\\appdata\\local\\programs\\python\\python37-32\\lib\\_dummy_thread.py',
   'PYMODULE'),
  ('dns',
   'c:\\users\\peter\\appdata\\local\\programs\\python\\python37-32\\lib\\site-packages\\dns\\__init__.py',
   'PYMODULE'),
  ('csv',
   'c:\\users\\peter\\appdata\\local\\programs\\python\\python37-32\\lib\\csv.py',
   'PYMODULE')])
